4 0.508714 0.001467
3 0.396325 0.001032
20 2.68257 0.006214
2 0.265317 0.000686
11 1.48084 0.000926
12 1.57492 0.003182
20 2.59023 0.001917
6 0.764305 0.00151
7 0.923126 0.002324
4 0.537811 0.00137
2 0.266756 0.000648
11 1.43839 0.001171
15 1.60107 0.002311
1 0.115806 0.000194
7 0.741923 0.001537
20 2.13489 0.004477
11 1.19116 0.002577
1 0.104735 0.00021
18 1.92191 0.002967
6 0.634377 0.00139
1 0.104565 0.000237
16 1.73022 0.003608
6 0.639677 0.001401
12 1.27943 0.002579
4 0.428783 0.0014
5 0.540933 0.0012
7 0.749688 0.002261
16 1.73249 0.003552
12 1.30483 0.002725
13 1.40191 0.00291
2 0.210508 0.000471
4 0.429128 0.001147
2 0.221381 0.000506
9 0.961638 0.002257
13 1.38192 0.001401
7 0.751695 0.001107
18 1.91694 0.004083
15 1.59381 0.003668
8 0.849725 0.001689
2 0.210975 0.00054
4 0.425445 0.000992
12 1.28123 0.002881
13 1.39675 0.003193
12 1.28972 0.002829
19 2.03287 0.004268
8 0.85501 0.001834
4 0.424395 0.001001
6 0.64385 0.001411
9 0.961628 0.001031
16 1.70913 0.001945
