^C:\USERS\STJNHASE\DOCUMENTS\VISUAL STUDIO 2013\PROJECTS\EX1\EX1\STDAFX.CPP
/c /Zi /nologo /W3 /WX- /sdl /O2 /Oi /Oy- /GL /D WIN32 /D NDEBUG /D _CONSOLE /D _LIB /D _UNICODE /D UNICODE /Gm- /EHsc /MD /GS /Gy /fp:precise /Zc:wchar_t /Zc:forScope /Yc"stdafx.h" /Fp"RELEASE\EX1.PCH" /Fo"RELEASE\\" /Fd"RELEASE\VC120.PDB" /Gd /TP /analyze- C:\USERS\STJNHASE\DOCUMENTS\VISUAL STUDIO 2013\PROJECTS\EX1\EX1\STDAFX.CPP
^C:\USERS\STJNHASE\DOCUMENTS\VISUAL STUDIO 2013\PROJECTS\EX1\EX1\EX1.CPP
/c /Zi /nologo /W3 /WX- /sdl /O2 /Oi /Oy- /GL /D WIN32 /D NDEBUG /D _CONSOLE /D _LIB /D _UNICODE /D UNICODE /Gm- /EHsc /MD /GS /Gy /fp:precise /Zc:wchar_t /Zc:forScope /Yu"stdafx.h" /Fp"RELEASE\EX1.PCH" /Fo"RELEASE\\" /Fd"RELEASE\VC120.PDB" /Gd /TP /analyze- C:\USERS\STJNHASE\DOCUMENTS\VISUAL STUDIO 2013\PROJECTS\EX1\EX1\EX1.CPP
